{
    "subsystem": "HMS",
    "base_path": "/home/eucares/SOC/SOCIF",
    "sis_host": "eucsis.n1data.lan",
    "sis_user": "eucops",
    "sis_base_path": "/home/eucops/SOC/sis/SOCIF",
    "id": {
        "ECSrv": "ecsrv",
        "IOT": "iot",
        "MOC": "moc",
        "SGS": "sgs",
        "EAS": "soc_eas",
        "ESS": "soc_ess",
        "HMS": "soc_hms",
        "LE1": "soc_le1",
        "QLA": "soc_qla",
        "SCS": "soc_scs",
        "SIS": "soc_sis"
    },
    "predefined_actions": {
        "import_ares_data": {
            "type": "cmd",
            "command": "AresRetrieveImport.sh",
            "args": "import -f {file_path} -d parameter/edds/TM"
        },
        "send_hktm_to_sis": {
            "type": "int", "command": "remote_copy",
            "host": "@sis_host", "user": "@sis_user",
            "tgt_dir": "@sis_base_path/soc/hms/in/hktm",
            "args": ""
        }
    },
    "data_flows": {
        "ares": {
            "name": "ARES Data",
            "source": "MOC",
            "remote": "soc/hms/out/edds",
            "actions": [ "archive", "import_ares_data" ]
        },
        "hktm": {
            "name": "HKTM Products",
            "source": "HMS",
            "remote": "",
            "actions": [ "archive", "send_hktm_to_sis" ]
        }
    }
}
